title,description
My Issue Title,My Issue Description
ajout des exports pdf,
affichage des images console admin,
ralentissements mysql,
mise à jour login 3partie,
export bdd,
mise en production,
mise en production,
mise en production,
mise en production,
mise à jour système,
retirer exports csv,
optimisation imports xml,
erreurs encodage accents pdf,
changement couleur boutons RGPD,
